current directory: /root/Minecraft-The-Power-Of-Forge/Minecraft-The-Power-Of-Forge/ruby/2.7.0/gems/psych-4.0.1/ext/psych
/usr/bin/ruby2.7 -I /usr/lib/ruby/2.7.0 -r ./siteconf20211014-24998-ngpxp2.rb extconf.rb
checking for yaml.h... yes
checking for yaml_get_version() in -lyaml... yes
creating Makefile

current directory: /root/Minecraft-The-Power-Of-Forge/Minecraft-The-Power-Of-Forge/ruby/2.7.0/gems/psych-4.0.1/ext/psych
make "DESTDIR=" clean

current directory: /root/Minecraft-The-Power-Of-Forge/Minecraft-The-Power-Of-Forge/ruby/2.7.0/gems/psych-4.0.1/ext/psych
make "DESTDIR="
compiling psych.c
compiling psych_emitter.c
compiling psych_parser.c
compiling psych_to_ruby.c
compiling psych_yaml_tree.c
linking shared-object psych.so

current directory: /root/Minecraft-The-Power-Of-Forge/Minecraft-The-Power-Of-Forge/ruby/2.7.0/gems/psych-4.0.1/ext/psych
make "DESTDIR=" install
/usr/bin/install -c -m 0755 psych.so ./.gem.20211014-24998-1djdcia
