current directory: /root/Minecraft-The-Power-Of-Forge/Minecraft-The-Power-Of-Forge/ruby/2.7.0/gems/bigdecimal-3.0.2/ext/bigdecimal
/usr/bin/ruby2.7 -I /usr/lib/ruby/2.7.0 -r ./siteconf20211014-10876-1uk4btg.rb extconf.rb
checking RUBY_BIGDECIMAL_VERSION... 3.0.2
checking for labs() in stdlib.h... yes
checking for llabs() in stdlib.h... yes
checking for finite() in math.h... yes
checking for isfinite() in math.h... no
checking for struct RRational in ruby.h... no
checking for rb_rational_num() in ruby.h... yes
checking for rb_rational_den() in ruby.h... yes
checking for struct RComplex in ruby.h... no
checking for rb_complex_real() in ruby.h... yes
checking for rb_complex_imag() in ruby.h... yes
checking for rb_array_const_ptr() in ruby.h... yes
checking for rb_sym2str() in ruby.h... yes
checking for rb_opts_exception_p() in ruby.h... yes
checking for rb_category_warn() in ruby.h... no
checking for RB_WARN_CATEGORY_DEPRECATED in ruby.h... no
creating Makefile

current directory: /root/Minecraft-The-Power-Of-Forge/Minecraft-The-Power-Of-Forge/ruby/2.7.0/gems/bigdecimal-3.0.2/ext/bigdecimal
make "DESTDIR=" clean

current directory: /root/Minecraft-The-Power-Of-Forge/Minecraft-The-Power-Of-Forge/ruby/2.7.0/gems/bigdecimal-3.0.2/ext/bigdecimal
make "DESTDIR="
compiling bigdecimal.c
linking shared-object bigdecimal.so

current directory: /root/Minecraft-The-Power-Of-Forge/Minecraft-The-Power-Of-Forge/ruby/2.7.0/gems/bigdecimal-3.0.2/ext/bigdecimal
make "DESTDIR=" install
/usr/bin/install -c -m 0755 bigdecimal.so ./.gem.20211014-10876-16wa8cd
